ID,Name,Date,Venue Text,Venue URL,Description
e1,Event 1,9/15/2014  11:00:00 AM UTC,123 Main St,https://maps.google.com/?q=123 Main St,"Line 1a
Line 2a"
e2,Event 2,10/1/2014  2:00:00 PM UTC,City Hall,https://spinspire.com/,"Line 1b
Line 2b"
e3,Event 3,11/15/2014  5:30:00 PM UTC,Regional Park,https://floridablue.com/,"Line 1c
Line 2c"
e4,Event 4,11/16/2014  10:00:00 PM UTC,Regional Park,https://floridablue.com/,"Line 1d
Line 2d"
